{
  "type": "service_account",
  "project_id": "a3607153-16a34",
  "private_key_id": "27a6ca1264bbd13d867528073f56b10ec90c4369",
  "private_key": "-----BEGIN PRIVATE KEY-----\nMIIEvAIBADANBgkqhkiG9w0BAQEFAASCBKYwggSiAgEAAoIBAQDB03V8Wik83qSD\nuDcJfhDiz+7hLGOV7mPOBjblXn/5O2G/7zjc/dOYHgE6zH9YxqPvr9nGGhvMsct0\nAozdcRVyWyRN8PwlWbt2yogAFuW6+FikNFs3UNqv13R//kuxarCsGUu+NSpDozgr\nwOgDZT5I50ysEFuvqzH+QQjvJYFIUdrrgWNMyFlhDo19t7LI74EdG3qlRGqq72GH\nKaGIUc2qC+QA4grGZDpeOxRj+8AXF8EEBIdJJXeXOYMVPkwu/9EhOc6WwtnjC0Cz\ndNOsrLIATXoxei029kF7Dwc57RIrsnYg8U7EAzAolEblq4RlnEX5eCof4eN/ZGQi\nSIoNzvfrAgMBAAECggEAKbSLy4mE5QWNBZCeOwsmq/8MyeOou+qTDBIXPsxSIfkO\ng+N/60EshcczAYld/2aigKDobXFRuP4qplgkIkPCVxxYV/L59jl0Fk/m6ooCvXPR\ncueXFvRtUbe86At6Ev8/a5B31UIQSYR1wihcY9qlh79JJp7Qc6CU/b3Vo8uAoWQn\nfr4TmV4u5N82Yn5LDJ+3QXk+CbF/W7IouqGPq9znjRgOmRS7uBGchaOQVlhDm6w/\niSwFIaU9V/4W80CXB0HWPTS+L3qRrJ2ztiNr1gyVuG2U+kqsuxH8qH+CAxhwf+xg\nR2zdxcL1ZoK5+MX5anYEgEjCB2J8LJgRbz9Cl7qilQKBgQDsCqsqVJ81FGQkBwts\nmLSxDFizo059OjpQQ97mCOcxHZ83HALrw/avGgS4cdk3h2o6gRybiTX0oTajjcRd\nWLgGUd79HZtC7aXyxQ8HU5POmXDYwQhplVq7Aw+QttM+mZ5d4ZOE3CRZzhwdSlPi\nBq9ZauKVNENQM8zZGYHT6wDpDwKBgQDSNv6ui58Olg+NiDKPK1wQbWkKnVvs5GKH\n/EI9aOm/CEK+uAZiDA163mcRKWTlh451wa6KE+Q88gu3Glebh9kdp8nJgjfOviVe\nawXq9yhE3KGMwUN/gOrIKy9VyZgYdXX4BxFf39nqJFThXyTx0HZg5FuS3ct6fHxS\nDUsFfNqrZQKBgDNbIuCj5rvSwvL/wWGQXAgFaqszBdnDOHrMOYwNNdf+3OxNoOkR\nCvQQEiTbSGqHgPpXqxTAJsgh51RwfN/edLOTTpP9xBEsyaVncJykd41E30OZxC3M\nvB/iS5mt3YpKPCWq9cC7cQFFEeLhkBymXbJzyfayl0605oX5wcCM6fbLAoGAUZM1\n0dYsqyRgdLPdquFQoK9Ui+H0wkD+W3bw3ZPQ4Wj7Pbd8AqBausuDg41ksg2gouG+\nMab2cxAaq7t1M83L2045aBE4RupS5gjyCvROlCpqJoz4/Imykmrvu4K3mwY5+T4E\n6AeeMNZYefzKAWy8A22ae6vGQon8VHsEGeURlmECgYA9Nea21mQHhGo34EyZ/DEQ\npzz2jRjLo5qBmJ6CENBtZKe9evi6i2tqscH41ePZMVtzGnctHDYGXownBihYyT6n\nSRpr5zaIPBStz6oe1S2lIClm8D/STQk0sFrZFLrZnjCelVHvrxasf7caXaXz6U7g\nftNqRY/uEv+vMFv3Ic2Q8g==\n-----END PRIVATE KEY-----\n",
  "client_email": "a3607153-16a34@appspot.gserviceaccount.com",
  "client_id": "115898649995288903953",
  "auth_uri": "https://accounts.google.com/o/oauth2/auth",
  "token_uri": "https://oauth2.googleapis.com/token",
  "auth_provider_x509_cert_url": "https://www.googleapis.com/oauth2/v1/certs",
  "client_x509_cert_url": "https://www.googleapis.com/robot/v1/metadata/x509/a3607153-16a34%40appspot.gserviceaccount.com"
}
